<?xml version="1.0" encoding="UTF-8" standalone="no"?>
<!-- Generated by IcoMoon.io -->

<svg
   xmlns:dc="http://purl.org/dc/elements/1.1/"
   xmlns:cc="http://creativecommons.org/ns#"
   xmlns:rdf="http://www.w3.org/1999/02/22-rdf-syntax-ns#"
   xmlns:svg="http://www.w3.org/2000/svg"
   xmlns="http://www.w3.org/2000/svg"
   xmlns:sodipodi="http://sodipodi.sourceforge.net/DTD/sodipodi-0.dtd"
   xmlns:inkscape="http://www.inkscape.org/namespaces/inkscape"
   version="1.1"
   width="384"
   height="448"
   viewBox="0 0 384 448"
   id="svg7"
   sodipodi:docname="twitter.svg"
   inkscape:export-filename="/home/d4n1/Desktop/develop/gitlab/oxehc/theme/static/images/icons/twitter.svg.png"
   inkscape:export-xdpi="8"
   inkscape:export-ydpi="8"
   inkscape:version="0.92.4 (5da689c313, 2019-01-14)">
  <metadata
     id="metadata13">
    <rdf:RDF>
      <cc:Work
         rdf:about="">
        <dc:format>image/svg+xml</dc:format>
        <dc:type
           rdf:resource="http://purl.org/dc/dcmitype/StillImage" />
      </cc:Work>
    </rdf:RDF>
  </metadata>
  <defs
     id="defs11" />
  <sodipodi:namedview
     pagecolor="#ffffff"
     bordercolor="#666666"
     borderopacity="1"
     objecttolerance="10"
     gridtolerance="10"
     guidetolerance="10"
     inkscape:pageopacity="0"
     inkscape:pageshadow="2"
     inkscape:window-width="713"
     inkscape:window-height="480"
     id="namedview9"
     showgrid="false"
     inkscape:zoom="0.52678571"
     inkscape:cx="278.94884"
     inkscape:cy="224"
     inkscape:window-x="860"
     inkscape:window-y="1504"
     inkscape:window-maximized="0"
     inkscape:current-layer="svg7" />
  <title
     id="title2" />
  <g
     id="icomoon-ignore" />
  <path
     fill="#fff"
     d="M320 152.5c-9.5 4.25-19.5 7-30.25 8.5 11-6.5 19.25-17 23.25-29.25-10.25 6-21.5 10.5-33.5 12.75-9.5-10.25-23.25-16.5-38.25-16.5-29 0-52.5 23.5-52.5 52.5 0 4 0.25 8.25 1.25 12-43.75-2.25-82.5-23-108.5-55-4.5 7.75-7.25 17-7.25 26.5 0 18.25 8.5 34.25 22.75 43.75-8.75-0.25-17-2.75-25-6.5v0.5c0 25.5 19.25 46.75 43.25 51.5-4.5 1.25-8 2-12.75 2-3.25 0-6.5-0.5-9.75-1 6.75 20.75 26 36 49 36.5-18 14-40.5 22.5-65.25 22.5-4.25 0-8.5-0.25-12.5-0.75 23.25 14.75 50.75 23.5 80.5 23.5 96.5 0 149.5-80 149.5-149.5 0-2.25 0-4.5-0.25-6.75 10.25-7.25 19.25-16.5 26.25-27.25zM384 104v240c0 39.75-32.25 72-72 72h-240c-39.75 0-72-32.25-72-72v-240c0-39.75 32.25-72 72-72h240c39.75 0 72 32.25 72 72z"
     id="path5"
     style="fill:#000000" />
</svg>
